{
	"$schema": "https://schema.management.azure.com/schemas/2015-01-01/deploymentTemplate.json#",
	"contentVersion": "1.0.0.0", 
	
	"parameters": {
		"dcCommon":	{ "type": "object", "metadata": { "description": "Common DC values" } }, 
		"vmName":		{ "type": "string", "metadata": { "description": "Name of VM to process script" } },
		"vmNumber":		{ "type": "int",	"metadata": { "description": "Number of the VM in the pool" } }
	},

	"variables": {
		"documentation1": "This sub-template intentionally blank - a blank template allows for an optional exectuion strategy",
		"documentation2": "",
		"documentation3": "You should look for a template of the same name, but with a 1 instead of a 0 (at the end)"
	},     
  	
	"resources": []
}