{
	"$schema": "http://schema.management.azure.com/schemas/2015-01-01/deploymentTemplate.json#",
	"contentVersion": "1.0.0.0",

	"parameters": { "dcCommon": { "type": "object", "metadata": { "description": "Common DC values" } } },

	"variables": {
		"documentation01": "This sub-template creates a virtual network with one subnet",
		"documentation02": "It expects certain values in the 'common' datastructure.",
		"documentation03": "    vnetName         - name of virtual network",
		"documentation04": "    vNetAddressSpace - base of address of 16 bit address range",
		"documentation07": "    subnetDb        - name of subnet inside virtual network - will be assigned the .2.0/24 range",
	}, 

	"resources": [
		{
			"type":			"Microsoft.Network/virtualNetworks",
			"apiVersion":	"2015-06-15",
			"name":			"[parameters('dcCommon').vnetName]",
			"location":		"[resourceGroup().location]",

			"properties": {
				"addressSpace": { "addressPrefixes": [ "[concat(parameters('dcCommon').vNetAddressSpace,'/16')]" ] },
				"subnets": [
					{ "name": "[parameters('dcCommon').subnetDb]", "properties": { "addressPrefix": "[parameters('dcCommon').subnetDbRange]" } } ]
			}
		}
	]
}